^C:\PXK\长沙下视匹配\下视匹配软件\UAVLOCATION\UAVLOCATION\UAVLOCATION\X64\RELEASE\COMMON.OBJ|C:\PXK\长沙下视匹配\下视匹配软件\UAVLOCATION\UAVLOCATION\UAVLOCATION\X64\RELEASE\DEMO.OBJ|C:\PXK\长沙下视匹配\下视匹配软件\UAVLOCATION\UAVLOCATION\UAVLOCATION\X64\RELEASE\IMAGEMATCH.OBJ|C:\PXK\长沙下视匹配\下视匹配软件\UAVLOCATION\UAVLOCATION\UAVLOCATION\X64\RELEASE\IMAGERECTIFY.OBJ|C:\PXK\长沙下视匹配\下视匹配软件\UAVLOCATION\UAVLOCATION\UAVLOCATION\X64\RELEASE\STDAFX.OBJ
C:\WINDOWS\GLOBALIZATION\SORTING\SORTDEFAULT.NLS
C:\PROGRAM FILES (X86)\MICROSOFT SDKS\WINDOWS\V7.0A\LIB\X64\KERNEL32.LIB
C:\PROGRAM FILES (X86)\MICROSOFT SDKS\WINDOWS\V7.0A\LIB\X64\USER32.LIB
C:\PROGRAM FILES (X86)\MICROSOFT SDKS\WINDOWS\V7.0A\LIB\X64\GDI32.LIB
C:\PROGRAM FILES (X86)\MICROSOFT SDKS\WINDOWS\V7.0A\LIB\X64\WINSPOOL.LIB
C:\PROGRAM FILES (X86)\MICROSOFT SDKS\WINDOWS\V7.0A\LIB\X64\COMDLG32.LIB
C:\PROGRAM FILES (X86)\MICROSOFT SDKS\WINDOWS\V7.0A\LIB\X64\ADVAPI32.LIB
C:\PROGRAM FILES (X86)\MICROSOFT SDKS\WINDOWS\V7.0A\LIB\X64\SHELL32.LIB
C:\PROGRAM FILES (X86)\MICROSOFT SDKS\WINDOWS\V7.0A\LIB\X64\OLE32.LIB
C:\PROGRAM FILES (X86)\MICROSOFT SDKS\WINDOWS\V7.0A\LIB\X64\OLEAUT32.LIB
C:\PROGRAM FILES (X86)\MICROSOFT SDKS\WINDOWS\V7.0A\LIB\X64\UUID.LIB
C:\PROGRAM FILES (X86)\MICROSOFT SDKS\WINDOWS\V7.0A\LIB\X64\ODBC32.LIB
C:\PROGRAM FILES (X86)\MICROSOFT SDKS\WINDOWS\V7.0A\LIB\X64\ODBCCP32.LIB
C:\PXK\长沙下视匹配\下视匹配软件\UAVLOCATION\UAVLOCATION\UAVLOCATION\X64\RELEASE\COMMON.OBJ
C:\PXK\长沙下视匹配\下视匹配软件\UAVLOCATION\UAVLOCATION\UAVLOCATION\X64\RELEASE\DEMO.OBJ
C:\PXK\长沙下视匹配\下视匹配软件\UAVLOCATION\UAVLOCATION\UAVLOCATION\X64\RELEASE\IMAGEMATCH.OBJ
C:\PXK\长沙下视匹配\下视匹配软件\UAVLOCATION\UAVLOCATION\UAVLOCATION\X64\RELEASE\IMAGERECTIFY.OBJ
C:\PXK\长沙下视匹配\下视匹配软件\UAVLOCATION\UAVLOCATION\UAVLOCATION\X64\RELEASE\STDAFX.OBJ
C:\PROGRAM FILES (X86)\MICROSOFT VISUAL STUDIO 10.0\VC\BIN\X86_AMD64\C2.DLL
C:\PROGRAM FILES (X86)\MICROSOFT VISUAL STUDIO 10.0\VC\LIB\AMD64\MSVCPRT.LIB
C:\PROGRAM FILES (X86)\MICROSOFT VISUAL STUDIO 10.0\VC\LIB\AMD64\MSVCRT.LIB
C:\PROGRAM FILES (X86)\MICROSOFT VISUAL STUDIO 10.0\VC\LIB\AMD64\OLDNAMES.LIB
C:\OPENCV\BUILD\X64\VC10\LIB\OPENCV_CALIB3D249.LIB
C:\OPENCV\BUILD\X64\VC10\LIB\OPENCV_CONTRIB249.LIB
C:\OPENCV\BUILD\X64\VC10\LIB\OPENCV_CORE249.LIB
C:\OPENCV\BUILD\X64\VC10\LIB\OPENCV_FEATURES2D249.LIB
C:\OPENCV\BUILD\X64\VC10\LIB\OPENCV_FLANN249.LIB
C:\OPENCV\BUILD\X64\VC10\LIB\OPENCV_HIGHGUI249.LIB
C:\OPENCV\BUILD\X64\VC10\LIB\OPENCV_IMGPROC249.LIB
C:\OPENCV\BUILD\X64\VC10\LIB\OPENCV_LEGACY249.LIB
C:\OPENCV\BUILD\X64\VC10\LIB\OPENCV_VIDEO249.LIB
C:\WINDOWS\SYSTEM32\TZRES.DLL
C:\PROGRAM FILES (X86)\MICROSOFT VISUAL STUDIO 10.0\VC\BIN\X86_AMD64\2052\LINKUI.DLL
C:\PXK\长沙下视匹配\下视匹配软件\UAVLOCATION\UAVLOCATION\X64\RELEASE\IMAGEMATCH.EXP
