222 7785.800000 112.801079 28.178131 280.088826 112.801163 28.177968 269.810000 1273.556763 1928.076538 1281.250000 1946.000000
223 7786.860000 112.800980 28.178177 279.974424 112.801162 28.177969 273.240000 1263.858643 1922.901978 1281.250000 1946.000000
224 7787.940000 112.800964 28.178186 279.974424 112.801161 28.177969 276.720000 1262.858643 1921.901978 1281.250000 1946.000000
225 7789.000000 112.800972 28.178308 280.249888 112.801162 28.177969 279.760000 1263.271973 1908.412231 1281.250000 1946.000000
226 7789.720000 112.800972 28.178255 280.249888 112.801162 28.177968 282.070000 1263.271973 1914.412231 1281.250000 1946.000000
227 7790.800000 112.800964 28.178255 280.249888 112.801163 28.177967 285.520000 1262.271973 1914.412231 1281.250000 1946.000000
231 7794.720000 112.801369 28.178322 280.249888 112.801162 28.177969 297.810000 1302.271973 1906.412231 1281.250000 1946.000000
232 7795.780000 112.801048 28.178249 279.974424 112.801162 28.177970 300.830000 1270.858643 1914.901978 1281.250000 1945.750000
233 7796.860000 112.801201 28.178364 280.067317 112.801162 28.177971 304.360000 1285.305664 1901.948608 1281.250000 1945.750000
234 7797.920000 112.800972 28.178259 279.974424 112.801162 28.177970 307.620000 1262.858643 1913.901978 1281.250000 1946.000000
235 7799.000000 112.801018 28.178152 280.252012 112.801162 28.177968 310.440000 1267.991211 1925.631592 1281.250000 1946.000000
236 7799.700000 112.801453 28.178244 280.088826 112.801162 28.177967 312.550000 1310.556763 1915.076538 1281.250000 1946.000000
240 7803.980000 112.801384 28.178205 280.123136 112.801161 28.177968 322.860000 1303.557129 1919.189819 1281.250000 1946.000000
241 7804.700000 112.802704 28.176720 280.137676 112.801161 28.177970 322.920000 1435.792603 2081.929688 1281.250000 1946.000000
242 7805.760000 112.801010 28.178251 279.453307 112.801162 28.177975 322.490000 1266.732422 1914.822144 1281.250000 1945.250000
245 7808.980000 112.801300 28.177725 279.744322 112.801155 28.177933 322.990000 1296.254883 1972.802368 1280.562500 1950.000000
250 7813.980000 112.801422 28.178165 280.463714 112.801051 28.177893 325.030000 1307.666870 1923.812256 1270.125000 1954.500000
251 7814.680000 112.801079 28.177889 280.463714 112.801013 28.177883 325.340000 1274.666870 1954.812256 1266.437500 1955.750000
252 7815.760000 112.801178 28.178152 280.455808 112.800956 28.177869 325.040000 1283.231079 1925.376465 1261.187500 1957.250000
253 7816.820000 112.801155 28.178226 280.255207 112.800903 28.177857 325.250000 1281.172485 1917.186157 1256.000000 1958.750000
254 7817.900000 112.800835 28.178068 280.171030 112.800852 28.177845 325.620000 1250.171021 1935.296021 1250.750000 1960.000000
258 7821.820000 112.800865 28.177902 279.929050 112.800671 28.177795 326.160000 1253.157715 1953.777588 1233.625000 1965.750000
259 7822.880000 112.801170 28.178078 279.929050 112.800620 28.177781 326.480000 1283.157715 1933.777588 1228.375000 1967.500000
260 7823.960000 112.800964 28.178007 279.636695 112.800568 28.177766 326.690000 1263.261475 1941.892090 1223.187500 1969.250000
261 7825.040000 112.800926 28.177988 279.636695 112.800515 28.177751 326.920000 1259.261475 1943.892090 1217.937500 1971.000000
262 7825.740000 112.800842 28.177967 279.558798 112.800481 28.177742 326.710000 1250.686890 1946.440918 1215.000000 1972.000000
263 7826.820000 112.800743 28.177849 279.929050 112.800430 28.177727 326.660000 1241.157715 1959.777588 1209.750000 1973.750000
267 7830.740000 112.800735 28.177689 280.186947 112.800244 28.177674 326.080000 1240.826050 1977.545410 1191.875000 1980.000000
268 7831.800000 112.800247 28.177753 280.168298 112.800193 28.177659 325.610000 1192.790771 1970.923584 1186.687500 1981.500000
269 7832.880000 112.800735 28.177689 279.558798 112.800141 28.177643 325.640000 1240.686890 1977.440918 1181.437500 1983.500000
270 7833.940000 112.800507 28.177803 279.506684 112.800089 28.177628 325.650000 1217.988037 1965.136841 1176.250000 1985.250000
271 7835.020000 112.800163 28.177710 279.472364 112.800036 28.177613 325.110000 1184.955444 1975.964844 1171.000000 1987.000000
272 7835.740000 112.800102 28.177691 280.060956 112.800001 28.177603 325.020000 1178.900635 1978.285400 1168.062500 1988.250000
276 7840.020000 112.800201 28.177610 279.472364 112.799796 28.177547 324.240000 1188.955444 1986.964844 1147.937500 1994.500000
277 7840.720000 112.799919 28.177605 279.472364 112.799762 28.177538 324.200000 1160.955444 1987.964844 1144.187500 1995.750000
278 7841.800000 112.799957 28.177839 279.472364 112.799709 28.177524 323.630000 1163.955444 1961.964844 1139.750000 1997.500000
279 7842.860000 112.800125 28.177719 279.472364 112.799656 28.177509 323.770000 1180.955444 1974.964844 1134.500000 1999.000000
280 7843.920000 112.799416 28.177719 279.472364 112.799604 28.177493 324.050000 1110.955444 1975.964844 1129.312500 2001.000000
281 7845.000000 112.799103 28.177336 279.472364 112.799560 28.177480 323.830000 1080.955444 2018.964844 1124.812500 2002.250000
282 7845.720000 112.799416 28.177546 279.980212 112.799541 28.177476 324.040000 1111.369629 1995.365234 1122.625000 2003.000000
286 7850.000000 112.799400 28.177309 279.882255 112.799513 28.177474 325.000000 1110.593750 2021.579468 1120.375000 2003.000000
287 7850.720000 112.799538 28.177244 279.950518 112.799511 28.177481 325.070000 1124.055176 2028.544312 1120.312500 2002.250000
288 7851.780000 112.799400 28.177000 280.244929 112.799507 28.177508 324.920000 1110.843994 2055.662842 1119.562500 1999.500000
289 7852.840000 112.799820 28.177616 279.819926 112.799502 28.177549 325.990000 1151.480591 1986.973022 1118.750000 1994.750000
290 7853.920000 112.799759 28.177588 280.197630 112.799497 28.177595 326.930000 1145.206665 1990.159180 1118.625000 1989.750000
291 7855.000000 112.799927 28.177685 280.197630 112.799490 28.177640 327.520000 1161.206665 1979.159180 1117.812500 1984.750000
295 7858.920000 112.799416 28.178108 279.802810 112.799471 28.177813 330.440000 1110.495728 1933.042969 1115.312500 1965.750000
296 7859.980000 112.799805 28.177977 279.660370 112.799466 28.177860 330.640000 1149.391357 1947.061890 1115.250000 1960.500000
297 7860.700000 112.799545 28.178102 279.732458 112.799463 28.177892 330.760000 1123.485474 1933.564697 1114.437500 1956.750000
298 7861.740000 112.799789 28.178139 280.036497 112.799458 28.177938 330.790000 1147.175903 1929.098145 1114.375000 1951.750000
299 7862.840000 112.799446 28.177917 280.095378 112.799453 28.177987 330.910000 1113.890259 1954.054199 1113.500000 1946.250000
300 7863.900000 112.799614 28.178047 279.950518 112.799448 28.178035 331.010000 1130.055176 1939.544312 1112.687500 1941.000000
304 7867.820000 112.799606 28.178234 279.842277 112.799430 28.178208 330.840000 1128.916626 1918.668701 1110.875000 1921.750000
305 7868.900000 112.799583 28.178391 280.000489 112.799425 28.178257 330.680000 1126.652832 1901.533081 1110.062500 1916.500000
306 7869.980000 112.799507 28.178225 280.011974 112.799420 28.178306 330.480000 1119.758057 1920.006226 1110.000000 1911.000000
307 7870.680000 112.799332 28.178242 280.535050 112.799416 28.178337 330.350000 1101.855713 1918.363525 1109.187500 1907.750000
308 7871.760000 112.799530 28.178303 279.829334 112.799411 28.178386 330.110000 1121.714844 1911.150269 1108.375000 1902.250000
309 7872.820000 112.799294 28.178398 279.830925 112.799405 28.178434 330.040000 1098.056885 1901.060059 1108.312500 1896.750000
313 7876.740000 112.799629 28.178864 279.830925 112.799391 28.178561 329.720000 1130.056885 1849.060059 1106.562500 1883.000000
314 7877.820000 112.799767 28.179028 279.935700 112.799390 28.178570 329.600000 1143.547729 1830.564819 1106.562500 1882.000000
315 7878.880000 112.799622 28.178185 279.808081 112.799389 28.178570 329.470000 1131.081543 1924.168945 1106.562500 1882.000000
317 7881.020000 112.798698 28.178404 279.582759 112.799410 28.178580 329.540000 1039.829956 1901.128906 1108.062500 1880.750000
321 7884.960000 112.799858 28.178633 279.835283 112.799591 28.178639 329.210000 1153.402832 1874.148193 1125.937500 1874.000000
322 7886.020000 112.799515 28.178696 280.514743 112.799637 28.178657 328.950000 1119.551025 1867.692139 1130.375000 1871.750000
323 7886.740000 112.799370 28.178785 279.898368 112.799667 28.178669 328.770000 1104.740356 1857.983398 1133.375000 1870.500000
324 7887.800000 112.799774 28.178682 279.979457 112.799712 28.178687 328.240000 1145.114990 1868.708618 1137.812500 1868.500000
325 7888.880000 112.799637 28.178787 280.340814 112.799761 28.178705 327.840000 1131.546753 1857.458496 1142.250000 1866.250000
326 7889.940000 112.799622 28.178818 279.846261 112.799811 28.178724 327.470000 1129.826538 1853.981323 1147.500000 1864.250000
330 7893.860000 112.799767 28.178797 280.147306 112.799995 28.178788 326.350000 1144.304932 1856.139771 1165.375000 1857.000000
331 7894.940000 112.799988 28.179031 280.312294 112.800045 28.178806 325.950000 1165.659180 1829.765381 1169.812500 1854.750000
332 7896.000000 112.800095 28.178963 280.229354 112.800095 28.178824 326.310000 1175.945557 1837.336792 1175.000000 1852.750000
333 7896.720000 112.800087 28.179075 280.312294 112.800128 28.178835 326.710000 1174.659180 1824.765381 1178.000000 1851.500000
334 7897.800000 112.800209 28.178911 280.205391 112.800178 28.178854 326.060000 1187.278320 1842.646240 1183.187500 1849.250000
335 7898.860000 112.799873 28.178881 280.172880 112.800228 28.178873 325.900000 1154.695190 1846.682983 1188.437500 1847.000000
339 7902.780000 112.800499 28.179138 279.643962 112.800415 28.178939 325.430000 1215.230713 1817.198975 1206.250000 1839.500000
340 7903.860000 112.800346 28.179041 279.810529 112.800466 28.178958 325.510000 1200.216797 1828.255493 1211.500000 1837.500000
341 7904.920000 112.800362 28.179008 280.203399 112.800517 28.178976 324.900000 1201.897827 1831.691040 1215.937500 1835.250000
342 7906.000000 112.800385 28.179129 279.958170 112.800567 28.178994 324.940000 1203.765381 1818.467773 1221.125000 1833.250000
343 7906.700000 112.800491 28.179136 279.958170 112.800600 28.179006 325.040000 1214.765381 1817.467773 1224.125000 1831.750000
348 7911.700000 112.802658 28.177010 280.038919 112.800710 28.179047 324.000000 1430.527710 2049.891602 1235.312500 1827.250000
352 7916.000000 112.800507 28.179523 280.165155 112.800746 28.178971 324.600000 1215.141357 1774.587036 1238.437500 1835.500000
353 7916.720000 112.800812 28.179396 280.053549 112.800763 28.178940 324.480000 1245.326294 1788.229736 1240.687500 1839.000000
357 7921.000000 112.800995 28.179018 279.778649 112.800855 28.178761 323.540000 1264.177490 1829.668091 1250.000000 1858.750000
358 7921.700000 112.800552 28.179106 280.065175 112.800867 28.178733 323.920000 1220.881958 1820.697510 1250.812500 1861.500000
359 7922.780000 112.800529 28.179300 279.859213 112.800886 28.178690 324.500000 1218.168701 1799.325073 1253.125000 1866.500000
360 7923.840000 112.800598 28.179180 280.158858 112.800906 28.178647 325.090000 1224.833740 1812.528320 1254.687500 1871.000000
361 7924.920000 112.800789 28.179068 279.907148 112.800927 28.178602 324.920000 1244.169067 1824.824341 1257.000000 1876.000000
362 7925.980000 112.800575 28.178946 280.118266 112.800947 28.178558 325.400000 1223.499390 1838.523804 1259.312500 1881.000000
366 7929.900000 112.800758 28.178604 279.602278 112.801025 28.178394 326.620000 1241.452637 1876.041748 1267.062500 1899.000000
367 7930.980000 112.801117 28.178478 279.270813 112.801048 28.178350 326.670000 1276.908447 1889.433594 1269.375000 1903.750000
368 7931.700000 112.800827 28.178820 280.033684 112.801062 28.178320 327.010000 1247.980591 1851.961548 1270.937500 1907.250000
369 7932.760000 112.801094 28.178654 279.897546 112.801082 28.178276 327.430000 1274.893677 1869.897339 1272.500000 1912.000000
平均水平位置误差:33.527373,误差超过100米次数:2 
