^C:\pxk\长沙下视匹配\下视匹配软件\UAVLocation\UAVLocation\UavLocation\UavLocation.vcxproj
C:\pxk\长沙下视匹配\下视匹配软件\UAVLocation\UAVLocation\x64\Debug\ImageMatchD.lib
C:\pxk\长沙下视匹配\下视匹配软件\UAVLocation\UAVLocation\x64\Debug\ImageMatchD.lib
C:\pxk\长沙下视匹配\下视匹配软件\UAVLocation\UAVLocation\x64\Debug\ImageMatchD.exp
C:\pxk\长沙下视匹配\下视匹配软件\UAVLocation\UAVLocation\x64\Debug\ImageMatchD.exp
^C:\pxk\长沙下视匹配\下视匹配软件\UAVLocation\UAVLocation\UavLocation\UavLocation.vcxproj
C:\pxk\长沙下视匹配\下视匹配软件\UAVLocation\UAVLocation\x64\Debug\ImageMatchD.lib
C:\pxk\长沙下视匹配\下视匹配软件\UAVLocation\UAVLocation\x64\Debug\ImageMatchD.lib
C:\pxk\长沙下视匹配\下视匹配软件\UAVLocation\UAVLocation\x64\Debug\ImageMatchD.exp
C:\pxk\长沙下视匹配\下视匹配软件\UAVLocation\UAVLocation\x64\Debug\ImageMatchD.exp
^C:\pxk\长沙下视匹配\下视匹配软件\UAVLocation\UAVLocation\UavLocation\UavLocation.vcxproj
C:\pxk\长沙下视匹配\下视匹配软件\UAVLocation\UAVLocation\x64\Debug\ImageMatchD.lib
C:\pxk\长沙下视匹配\下视匹配软件\UAVLocation\UAVLocation\x64\Debug\ImageMatchD.lib
C:\pxk\长沙下视匹配\下视匹配软件\UAVLocation\UAVLocation\x64\Debug\ImageMatchD.exp
C:\pxk\长沙下视匹配\下视匹配软件\UAVLocation\UAVLocation\x64\Debug\ImageMatchD.exp
^C:\pxk\长沙下视匹配\下视匹配软件\UAVLocation\UAVLocation\UavLocation\UavLocation.vcxproj
C:\pxk\长沙下视匹配\下视匹配软件\UAVLocation\UAVLocation\x64\Debug\ImageMatchD.lib
C:\pxk\长沙下视匹配\下视匹配软件\UAVLocation\UAVLocation\x64\Debug\ImageMatchD.lib
C:\pxk\长沙下视匹配\下视匹配软件\UAVLocation\UAVLocation\x64\Debug\ImageMatchD.exp
C:\pxk\长沙下视匹配\下视匹配软件\UAVLocation\UAVLocation\x64\Debug\ImageMatchD.exp
^C:\pxk\长沙下视匹配\下视匹配软件\UAVLocation\UAVLocation\UavLocation\UavLocation.vcxproj
C:\pxk\长沙下视匹配\下视匹配软件\UAVLocation\UAVLocation\x64\Debug\ImageMatchD.lib
C:\pxk\长沙下视匹配\下视匹配软件\UAVLocation\UAVLocation\x64\Debug\ImageMatchD.lib
C:\pxk\长沙下视匹配\下视匹配软件\UAVLocation\UAVLocation\x64\Debug\ImageMatchD.exp
C:\pxk\长沙下视匹配\下视匹配软件\UAVLocation\UAVLocation\x64\Debug\ImageMatchD.exp
^C:\pxk\长沙下视匹配\下视匹配软件\UAVLocation\UAVLocation\UavLocation\UavLocation.vcxproj
C:\pxk\长沙下视匹配\下视匹配软件\UAVLocation\UAVLocation\x64\Debug\ImageMatchD.lib
C:\pxk\长沙下视匹配\下视匹配软件\UAVLocation\UAVLocation\x64\Debug\ImageMatchD.lib
C:\pxk\长沙下视匹配\下视匹配软件\UAVLocation\UAVLocation\x64\Debug\ImageMatchD.exp
C:\pxk\长沙下视匹配\下视匹配软件\UAVLocation\UAVLocation\x64\Debug\ImageMatchD.exp
^C:\pxk\长沙下视匹配\下视匹配软件\UAVLocation\UAVLocation\UavLocation\UavLocation.vcxproj
C:\pxk\长沙下视匹配\下视匹配软件\UAVLocation\UAVLocation\x64\Debug\ImageMatchD.lib
C:\pxk\长沙下视匹配\下视匹配软件\UAVLocation\UAVLocation\x64\Debug\ImageMatchD.lib
C:\pxk\长沙下视匹配\下视匹配软件\UAVLocation\UAVLocation\x64\Debug\ImageMatchD.exp
C:\pxk\长沙下视匹配\下视匹配软件\UAVLocation\UAVLocation\x64\Debug\ImageMatchD.exp
^C:\pxk\长沙下视匹配\下视匹配软件\UAVLocation\UAVLocation\UavLocation\UavLocation.vcxproj
C:\pxk\长沙下视匹配\下视匹配软件\UAVLocation\UAVLocation\x64\Debug\ImageMatchD.lib
C:\pxk\长沙下视匹配\下视匹配软件\UAVLocation\UAVLocation\x64\Debug\ImageMatchD.lib
C:\pxk\长沙下视匹配\下视匹配软件\UAVLocation\UAVLocation\x64\Debug\ImageMatchD.exp
C:\pxk\长沙下视匹配\下视匹配软件\UAVLocation\UAVLocation\x64\Debug\ImageMatchD.exp
^C:\pxk\长沙下视匹配\下视匹配软件\UAVLocation\UAVLocation\UavLocation\UavLocation.vcxproj
C:\pxk\长沙下视匹配\下视匹配软件\UAVLocation\UAVLocation\x64\Debug\ImageMatchD.lib
C:\pxk\长沙下视匹配\下视匹配软件\UAVLocation\UAVLocation\x64\Debug\ImageMatchD.lib
C:\pxk\长沙下视匹配\下视匹配软件\UAVLocation\UAVLocation\x64\Debug\ImageMatchD.exp
C:\pxk\长沙下视匹配\下视匹配软件\UAVLocation\UAVLocation\x64\Debug\ImageMatchD.exp
^C:\pxk\长沙下视匹配\下视匹配软件\UAVLocation\UAVLocation\UavLocation\UavLocation.vcxproj
C:\pxk\长沙下视匹配\下视匹配软件\UAVLocation\UAVLocation\x64\Debug\ImageMatchD.lib
C:\pxk\长沙下视匹配\下视匹配软件\UAVLocation\UAVLocation\x64\Debug\ImageMatchD.lib
C:\pxk\长沙下视匹配\下视匹配软件\UAVLocation\UAVLocation\x64\Debug\ImageMatchD.exp
C:\pxk\长沙下视匹配\下视匹配软件\UAVLocation\UAVLocation\x64\Debug\ImageMatchD.exp
^C:\pxk\长沙下视匹配\下视匹配软件\UAVLocation\UAVLocation\UavLocation\UavLocation.vcxproj
C:\pxk\长沙下视匹配\下视匹配软件\UAVLocation\UAVLocation\x64\Debug\ImageMatchD.lib
C:\pxk\长沙下视匹配\下视匹配软件\UAVLocation\UAVLocation\x64\Debug\ImageMatchD.lib
C:\pxk\长沙下视匹配\下视匹配软件\UAVLocation\UAVLocation\x64\Debug\ImageMatchD.exp
C:\pxk\长沙下视匹配\下视匹配软件\UAVLocation\UAVLocation\x64\Debug\ImageMatchD.exp
^C:\pxk\长沙下视匹配\下视匹配软件\UAVLocation\UAVLocation\UavLocation\UavLocation.vcxproj
C:\pxk\长沙下视匹配\下视匹配软件\UAVLocation\UAVLocation\x64\Debug\ImageMatchD.lib
C:\pxk\长沙下视匹配\下视匹配软件\UAVLocation\UAVLocation\x64\Debug\ImageMatchD.lib
C:\pxk\长沙下视匹配\下视匹配软件\UAVLocation\UAVLocation\x64\Debug\ImageMatchD.exp
C:\pxk\长沙下视匹配\下视匹配软件\UAVLocation\UAVLocation\x64\Debug\ImageMatchD.exp
^C:\pxk\长沙下视匹配\下视匹配软件\UAVLocation\UAVLocation\UavLocation\UavLocation.vcxproj
C:\pxk\长沙下视匹配\下视匹配软件\UAVLocation\UAVLocation\x64\Debug\ImageMatchD.lib
C:\pxk\长沙下视匹配\下视匹配软件\UAVLocation\UAVLocation\x64\Debug\ImageMatchD.lib
C:\pxk\长沙下视匹配\下视匹配软件\UAVLocation\UAVLocation\x64\Debug\ImageMatchD.exp
C:\pxk\长沙下视匹配\下视匹配软件\UAVLocation\UAVLocation\x64\Debug\ImageMatchD.exp
^C:\pxk\长沙下视匹配\下视匹配软件\UAVLocation\UAVLocation\UavLocation\UavLocation.vcxproj
C:\pxk\长沙下视匹配\下视匹配软件\UAVLocation\UAVLocation\x64\Debug\ImageMatchD.lib
C:\pxk\长沙下视匹配\下视匹配软件\UAVLocation\UAVLocation\x64\Debug\ImageMatchD.lib
C:\pxk\长沙下视匹配\下视匹配软件\UAVLocation\UAVLocation\x64\Debug\ImageMatchD.exp
C:\pxk\长沙下视匹配\下视匹配软件\UAVLocation\UAVLocation\x64\Debug\ImageMatchD.exp
^C:\pxk\长沙下视匹配\下视匹配软件\UAVLocation\UAVLocation\UavLocation\UavLocation.vcxproj
C:\pxk\长沙下视匹配\下视匹配软件\UAVLocation\UAVLocation\x64\Debug\ImageMatchD.lib
C:\pxk\长沙下视匹配\下视匹配软件\UAVLocation\UAVLocation\x64\Debug\ImageMatchD.lib
C:\pxk\长沙下视匹配\下视匹配软件\UAVLocation\UAVLocation\x64\Debug\ImageMatchD.exp
C:\pxk\长沙下视匹配\下视匹配软件\UAVLocation\UAVLocation\x64\Debug\ImageMatchD.exp
^C:\pxk\长沙下视匹配\下视匹配软件\UAVLocation\UAVLocation\UavLocation\UavLocation.vcxproj
C:\pxk\长沙下视匹配\下视匹配软件\UAVLocation\UAVLocation\x64\Debug\ImageMatchD.lib
C:\pxk\长沙下视匹配\下视匹配软件\UAVLocation\UAVLocation\x64\Debug\ImageMatchD.lib
C:\pxk\长沙下视匹配\下视匹配软件\UAVLocation\UAVLocation\x64\Debug\ImageMatchD.exp
C:\pxk\长沙下视匹配\下视匹配软件\UAVLocation\UAVLocation\x64\Debug\ImageMatchD.exp
^C:\pxk\长沙下视匹配\下视匹配软件\UAVLocation\UAVLocation\UavLocation\UavLocation.vcxproj
C:\pxk\长沙下视匹配\下视匹配软件\UAVLocation\UAVLocation\x64\Debug\ImageMatchD.lib
C:\pxk\长沙下视匹配\下视匹配软件\UAVLocation\UAVLocation\x64\Debug\ImageMatchD.lib
C:\pxk\长沙下视匹配\下视匹配软件\UAVLocation\UAVLocation\x64\Debug\ImageMatchD.exp
C:\pxk\长沙下视匹配\下视匹配软件\UAVLocation\UAVLocation\x64\Debug\ImageMatchD.exp
^C:\pxk\长沙下视匹配\下视匹配软件\UAVLocation\UAVLocation\UavLocation\UavLocation.vcxproj
C:\pxk\长沙下视匹配\下视匹配软件\UAVLocation\UAVLocation\x64\Debug\ImageMatchD.lib
C:\pxk\长沙下视匹配\下视匹配软件\UAVLocation\UAVLocation\x64\Debug\ImageMatchD.lib
C:\pxk\长沙下视匹配\下视匹配软件\UAVLocation\UAVLocation\x64\Debug\ImageMatchD.exp
C:\pxk\长沙下视匹配\下视匹配软件\UAVLocation\UAVLocation\x64\Debug\ImageMatchD.exp
^C:\pxk\长沙下视匹配\下视匹配软件\UAVLocation\UAVLocation\UavLocation\UavLocation.vcxproj
C:\pxk\长沙下视匹配\下视匹配软件\UAVLocation\UAVLocation\x64\Debug\ImageMatchD.lib
C:\pxk\长沙下视匹配\下视匹配软件\UAVLocation\UAVLocation\x64\Debug\ImageMatchD.lib
C:\pxk\长沙下视匹配\下视匹配软件\UAVLocation\UAVLocation\x64\Debug\ImageMatchD.exp
C:\pxk\长沙下视匹配\下视匹配软件\UAVLocation\UAVLocation\x64\Debug\ImageMatchD.exp
^C:\pxk\长沙下视匹配\下视匹配软件\UAVLocation\UAVLocation\UavLocation\UavLocation.vcxproj
C:\pxk\长沙下视匹配\下视匹配软件\UAVLocation\UAVLocation\x64\Debug\ImageMatchD.lib
C:\pxk\长沙下视匹配\下视匹配软件\UAVLocation\UAVLocation\x64\Debug\ImageMatchD.lib
C:\pxk\长沙下视匹配\下视匹配软件\UAVLocation\UAVLocation\x64\Debug\ImageMatchD.exp
C:\pxk\长沙下视匹配\下视匹配软件\UAVLocation\UAVLocation\x64\Debug\ImageMatchD.exp
^C:\pxk\长沙下视匹配\下视匹配软件\UAVLocation\UAVLocation\UavLocation\UavLocation.vcxproj
C:\pxk\长沙下视匹配\下视匹配软件\UAVLocation\UAVLocation\x64\Debug\ImageMatchD.lib
C:\pxk\长沙下视匹配\下视匹配软件\UAVLocation\UAVLocation\x64\Debug\ImageMatchD.lib
C:\pxk\长沙下视匹配\下视匹配软件\UAVLocation\UAVLocation\x64\Debug\ImageMatchD.exp
C:\pxk\长沙下视匹配\下视匹配软件\UAVLocation\UAVLocation\x64\Debug\ImageMatchD.exp
^C:\pxk\长沙下视匹配\下视匹配软件\UAVLocation\UAVLocation\UavLocation\UavLocation.vcxproj
C:\pxk\长沙下视匹配\下视匹配软件\UAVLocation\UAVLocation\x64\Debug\ImageMatchD.lib
C:\pxk\长沙下视匹配\下视匹配软件\UAVLocation\UAVLocation\x64\Debug\ImageMatchD.lib
C:\pxk\长沙下视匹配\下视匹配软件\UAVLocation\UAVLocation\x64\Debug\ImageMatchD.exp
C:\pxk\长沙下视匹配\下视匹配软件\UAVLocation\UAVLocation\x64\Debug\ImageMatchD.exp
^C:\pxk\长沙下视匹配\下视匹配软件\UAVLocation\UAVLocation\UavLocation\UavLocation.vcxproj
C:\pxk\长沙下视匹配\下视匹配软件\UAVLocation\UAVLocation\x64\Debug\ImageMatchD.lib
C:\pxk\长沙下视匹配\下视匹配软件\UAVLocation\UAVLocation\x64\Debug\ImageMatchD.lib
C:\pxk\长沙下视匹配\下视匹配软件\UAVLocation\UAVLocation\x64\Debug\ImageMatchD.exp
C:\pxk\长沙下视匹配\下视匹配软件\UAVLocation\UAVLocation\x64\Debug\ImageMatchD.exp
^C:\pxk\长沙下视匹配\下视匹配软件\UAVLocation\UAVLocation\UavLocation\UavLocation.vcxproj
C:\pxk\长沙下视匹配\下视匹配软件\UAVLocation\UAVLocation\x64\Debug\ImageMatchD.lib
C:\pxk\长沙下视匹配\下视匹配软件\UAVLocation\UAVLocation\x64\Debug\ImageMatchD.lib
C:\pxk\长沙下视匹配\下视匹配软件\UAVLocation\UAVLocation\x64\Debug\ImageMatchD.exp
C:\pxk\长沙下视匹配\下视匹配软件\UAVLocation\UAVLocation\x64\Debug\ImageMatchD.exp
^C:\pxk\长沙下视匹配\下视匹配软件\UAVLocation\UAVLocation\UavLocation\UavLocation.vcxproj
C:\pxk\长沙下视匹配\下视匹配软件\UAVLocation\UAVLocation\x64\Debug\ImageMatchD.lib
C:\pxk\长沙下视匹配\下视匹配软件\UAVLocation\UAVLocation\x64\Debug\ImageMatchD.lib
C:\pxk\长沙下视匹配\下视匹配软件\UAVLocation\UAVLocation\x64\Debug\ImageMatchD.exp
C:\pxk\长沙下视匹配\下视匹配软件\UAVLocation\UAVLocation\x64\Debug\ImageMatchD.exp
^C:\pxk\长沙下视匹配\下视匹配软件\UAVLocation\UAVLocation\UavLocation\UavLocation.vcxproj
C:\pxk\长沙下视匹配\下视匹配软件\UAVLocation\UAVLocation\x64\Debug\ImageMatchD.lib
C:\pxk\长沙下视匹配\下视匹配软件\UAVLocation\UAVLocation\x64\Debug\ImageMatchD.lib
C:\pxk\长沙下视匹配\下视匹配软件\UAVLocation\UAVLocation\x64\Debug\ImageMatchD.exp
C:\pxk\长沙下视匹配\下视匹配软件\UAVLocation\UAVLocation\x64\Debug\ImageMatchD.exp
^C:\pxk\长沙下视匹配\下视匹配软件\UAVLocation\UAVLocation\UavLocation\UavLocation.vcxproj
C:\pxk\长沙下视匹配\下视匹配软件\UAVLocation\UAVLocation\x64\Debug\ImageMatchD.lib
C:\pxk\长沙下视匹配\下视匹配软件\UAVLocation\UAVLocation\x64\Debug\ImageMatchD.lib
C:\pxk\长沙下视匹配\下视匹配软件\UAVLocation\UAVLocation\x64\Debug\ImageMatchD.exp
C:\pxk\长沙下视匹配\下视匹配软件\UAVLocation\UAVLocation\x64\Debug\ImageMatchD.exp
^C:\pxk\长沙下视匹配\下视匹配软件\UAVLocation\UAVLocation\UavLocation\UavLocation.vcxproj
C:\pxk\长沙下视匹配\下视匹配软件\UAVLocation\UAVLocation\x64\Debug\ImageMatchD.lib
C:\pxk\长沙下视匹配\下视匹配软件\UAVLocation\UAVLocation\x64\Debug\ImageMatchD.lib
C:\pxk\长沙下视匹配\下视匹配软件\UAVLocation\UAVLocation\x64\Debug\ImageMatchD.exp
C:\pxk\长沙下视匹配\下视匹配软件\UAVLocation\UAVLocation\x64\Debug\ImageMatchD.exp
^C:\pxk\长沙下视匹配\下视匹配软件\UAVLocation\UAVLocation\UavLocation\UavLocation.vcxproj
C:\pxk\长沙下视匹配\下视匹配软件\UAVLocation\UAVLocation\x64\Debug\ImageMatchD.lib
C:\pxk\长沙下视匹配\下视匹配软件\UAVLocation\UAVLocation\x64\Debug\ImageMatchD.lib
C:\pxk\长沙下视匹配\下视匹配软件\UAVLocation\UAVLocation\x64\Debug\ImageMatchD.exp
C:\pxk\长沙下视匹配\下视匹配软件\UAVLocation\UAVLocation\x64\Debug\ImageMatchD.exp
^C:\pxk\长沙下视匹配\下视匹配软件\UAVLocation\UAVLocation\UavLocation\UavLocation.vcxproj
C:\pxk\长沙下视匹配\下视匹配软件\UAVLocation\UAVLocation\x64\Debug\ImageMatchD.lib
C:\pxk\长沙下视匹配\下视匹配软件\UAVLocation\UAVLocation\x64\Debug\ImageMatchD.lib
C:\pxk\长沙下视匹配\下视匹配软件\UAVLocation\UAVLocation\x64\Debug\ImageMatchD.exp
C:\pxk\长沙下视匹配\下视匹配软件\UAVLocation\UAVLocation\x64\Debug\ImageMatchD.exp
^C:\pxk\长沙下视匹配\下视匹配软件\UAVLocation\UAVLocation\UavLocation\UavLocation.vcxproj
C:\pxk\长沙下视匹配\下视匹配软件\UAVLocation\UAVLocation\x64\Debug\ImageMatchD.lib
C:\pxk\长沙下视匹配\下视匹配软件\UAVLocation\UAVLocation\x64\Debug\ImageMatchD.lib
C:\pxk\长沙下视匹配\下视匹配软件\UAVLocation\UAVLocation\x64\Debug\ImageMatchD.exp
C:\pxk\长沙下视匹配\下视匹配软件\UAVLocation\UAVLocation\x64\Debug\ImageMatchD.exp
